<svg version="1.1" id="Capa_1" xmlns="http://www.w3.org/2000/svg" xmlns:xlink="http://www.w3.org/1999/xlink" x="0px" y="0px"
	 width="510px" height="510px" viewBox="0 0 510 510" style="enable-background:new 0 0 510 510;" xml:space="preserve">
<g>
	<g id="camera-alt">
		<circle cx="255" cy="280.5" r="81.6"/>
		<path d="M178.5,25.5l-45.9,51H51c-28.05,0-51,22.95-51,51v306c0,28.05,22.95,51,51,51h408c28.05,0,51-22.95,51-51v-306
			c0-28.05-22.95-51-51-51h-81.6l-45.9-51H178.5z M255,408c-71.4,0-127.5-56.1-127.5-127.5c0-71.4,56.1-127.5,127.5-127.5
			c71.4,0,127.5,56.1,127.5,127.5C382.5,351.9,326.4,408,255,408z"/>
	</g>
</g>
</svg>
